module gitlab.com/writeonlyhugo/hugo-module-bootstrap

go 1.17

require (
	github.com/gohugoio/hugo-mod-jslibs-dist/popperjs/v2 v2.21100.20000 // indirect
	github.com/twbs/bootstrap v5.3.3+incompatible // indirect
)
